<svg width="1920" height="705" viewBox="0 0 1920 705" fill="none" xmlns="http://www.w3.org/2000/svg">
<path opacity="0.1" fill-rule="evenodd" clip-rule="evenodd" d="M187.728 192L188 0L188.4 0.000567375L188.128 192H380.728L381 0L381.4 0.000567375L381.128 192H573.728L574 0L574.4 0.000567375L574.128 192H766.728L767 0L767.4 0.000567375L767.128 192H959.728L960 0L960.4 0.000567375L960.128 192H1152.73L1153 0L1153.4 0.000567375L1153.13 192H1345.73L1346 0L1346.4 0.000567375L1346.13 192H1538.73L1539 0L1539.4 0.000567375L1539.13 192H1731.73L1732 0L1732.4 0.000567375L1732.13 192H1920V192.4H1732.13L1731.86 384H1920V384.4H1731.85L1731.58 576H1920V576.4H1731.58L1731.4 705.001L1731 705L1731.18 576.4H1538.58L1538.4 705.001L1538 705L1538.18 576.4H1345.58L1345.4 705.001L1345 705L1345.18 576.4H1152.58L1152.4 705.001L1152 705L1152.18 576.4H959.582L959.4 705.001L959 705L959.182 576.4H766.582L766.4 705.001L766 705L766.182 576.4H573.582L573.4 705.001L573 705L573.182 576.4H380.582L380.4 705.001L380 705L380.182 576.4H187.582L187.4 705.001L187 705L187.182 576.4H0V576H187.183L187.455 384.4H0V384H187.455L187.727 192.4H0V192H187.728ZM188.127 192.4L187.855 384H380.455L380.727 192.4H188.127ZM381.127 192.4L380.855 384H573.455L573.727 192.4H381.127ZM574.127 192.4L573.855 384H766.455L766.727 192.4H574.127ZM767.127 192.4L766.855 384H959.455L959.727 192.4H767.127ZM960.127 192.4L959.855 384H1152.46L1152.73 192.4H960.127ZM1153.13 192.4L1152.86 384H1345.46L1345.73 192.4H1153.13ZM1346.13 192.4L1345.86 384H1538.46L1538.73 192.4H1346.13ZM1539.13 192.4L1538.86 384H1731.46L1731.73 192.4H1539.13ZM1731.45 384.4H1538.85L1538.58 576H1731.18L1731.45 384.4ZM1538.18 576L1538.45 384.4H1345.85L1345.58 576H1538.18ZM1345.18 576L1345.45 384.4H1152.85L1152.58 576H1345.18ZM1152.18 576L1152.45 384.4H959.855L959.583 576H1152.18ZM959.183 576L959.455 384.4H766.855L766.583 576H959.183ZM766.183 576L766.455 384.4H573.855L573.583 576H766.183ZM573.183 576L573.455 384.4H380.855L380.583 576H573.183ZM380.183 576L380.455 384.4H187.855L187.583 576H380.183Z" fill="white"/>
</svg>
